{
    "title": "Latest Plane Crash",
    "timestamp": 1467437321333,
    "id": 1,
    "name": "Latest_plane_crash",
    "author": "jishnu",
    "data": "<p>Lorem ipsum dolor sit amet, consectetur adipiscing elit. Quisque iaculis urna ut auctor consectetur. Ut sit amet sem sed quam maximus scelerisque. Morbi ut dapibus velit. In vel aliquam ipsum. Quisque imperdiet arcu a velit accumsan consequat. Aliquam eget nunc suscipit, interdum ante vel, vehicula lectus. Integer et sem eget purus convallis elementum eget quis dolor. Duis ullamcorper in felis mattis viverra. Morbi finibus malesuada interdum. Aliquam hendrerit, augue quis egestas varius, diam massa porttitor tellus, sed dictum lorem odio quis eros. Pellentesque habitant morbi tristique senectus et netus et malesuada fames ac turpis egestas. Interdum et malesuada fames ac ante ipsum primis in faucibus. Integer eu purus varius, tempus nunc a, cursus elit. Maecenas placerat neque ut justo rutrum, et consectetur justo vulputate. Vestibulum pretium nulla eget erat molestie, a efficitur tellus ullamcorper.</p><p>Nunc auctor odio interdum metus pulvinar dictum. Donec non libero eget ante dignissim dictum in eu dui. Donec sit amet purus libero. Nam dictum placerat turpis, quis convallis erat. Quisque lacinia sit amet diam eget vulputate. In varius, augue vitae bibendum cursus, dolor nunc pellentesque ipsum, quis sollicitudin odio nibh vel mauris. Ut sollicitudin accumsan mi. Phasellus iaculis pellentesque risus, quis aliquam mi pellentesque a.</p><p>   Vestibulum ultricies risus metus, ut placerat ex semper et. Sed eu diam in lorem feugiat egestas. Praesent vitae aliquam risus, a rhoncus nisi. Nulla aliquet ipsum sit amet diam suscipit, ut laoreet diam accumsan. Curabitur euismod sapien mauris, in dignissim mauris porttitor quis. Curabitur sollicitudin nunc nec massa suscipit rutrum. Ut sit amet enim in leo commodo ultricies nec sit amet ante. Nunc velit nunc, sollicitudin at quam quis, suscipit faucibus ex. Vivamus metus lacus, ultricies vitae ante sit amet, ultricies vestibulum elit. Fusce ac porta nisi, vitae porttitor metus. Maecenas vel placerat sem. Phasellus nec quam sapien. Pellentesque pharetra neque aliquet erat pulvinar efficitur.</p><p>Ut dignissim ultricies eleifend. Etiam massa ante, tempus eget vestibulum a, aliquet sit amet neque. Proin sodales vehicula leo, vel placerat odio blandit ac. Nullam nec velit non arcu dapibus vulputate ac et justo. Mauris mollis, neque nec varius lobortis, urna nibh pulvinar arcu, at ultricies orci lorem sed ligula. Fusce venenatis nec sem et rhoncus. Curabitur rhoncus lorem eget ex tincidunt, nec hendrerit dui pharetra. Nam lobortis est vel ligula sodales fermentum. Sed id elementum enim. Pellentesque habitant morbi tristique senectus et netus et malesuada fames ac turpis egestas. Integer condimentum maximus condimentum. Quisque non dolor ut sapien vehicula dignissim et ut ex. In cursus eu magna ut fermentum. Suspendisse non condimentum lorem.</p><p>Duis id odio sit amet quam tempus pulvinar et quis lacus. In sollicitudin nisl a porttitor volutpat. Duis aliquet finibus sollicitudin. Donec aliquet lacus a mauris pretium, vitae faucibus orci aliquet. Nullam tristique eros sed est cursus porttitor. Etiam facilisis odio sit amet feugiat auctor. Cras molestie consectetur elit, id blandit ligula iaculis rhoncus.</p>"
}
